%YAML 1.1
%TAG !u! tag:unity3d.com,2011:
--- !u!21 &2100000
Material:
  serializedVersion: 6
  m_ObjectHideFlags: 0
  m_CorrespondingSourceObject: {fileID: 0}
  m_PrefabInternal: {fileID: 0}
  m_Name: Ground
  m_Shader: {fileID: 46, guid: 0000000000000000f000000000000000, type: 0}
  m_ShaderKeywords: _DETAIL_MULX2 _EMISSION _NORMALMAP _PARALLAXMAP
  m_LightmapFlags: 0
  m_EnableInstancingVariants: 0
  m_DoubleSidedGI: 0
  m_CustomRenderQueue: -1
  stringTagMap: {}
  disabledShaderPasses: []
  m_SavedProperties:
    serializedVersion: 3
    m_TexEnvs:
    - _BumpMap:
        m_Texture: {fileID: 2800000, guid: 6c18e3c26a9d1b64babf6089089907a8, type: 3}
        m_Scale: {x: 120, y: 120}
        m_Offset: {x: 0, y: 0}
    - _DetailAlbedoMap:
        m_Texture: {fileID: 2800000, guid: 08909df601123aa4a967b0b31c46e902, type: 3}
        m_Scale: {x: 150, y: 150}
        m_Offset: {x: 0, y: 0}
    - _DetailMask:
        m_Texture: {fileID: 2800000, guid: 96f61ed9a9f2fc3418ef7de12b1aaf2a, type: 3}
        m_Scale: {x: 1, y: 1}
        m_Offset: {x: 0, y: 0}
    - _DetailNormalMap:
        m_Texture: {fileID: 2800000, guid: 6c18e3c26a9d1b64babf6089089907a8, type: 3}
        m_Scale: {x: 1, y: 1}
        m_Offset: {x: 0, y: 0}
    - _EmissionMap:
        m_Texture: {fileID: 2800000, guid: 96f61ed9a9f2fc3418ef7de12b1aaf2a, type: 3}
        m_Scale: {x: 150, y: 150}
        m_Offset: {x: 0, y: 0}
    - _MainTex:
        m_Texture: {fileID: 2800000, guid: 08909df601123aa4a967b0b31c46e902, type: 3}
        m_Scale: {x: 150, y: 150}
        m_Offset: {x: 0, y: 0}
    - _MetallicGlossMap:
        m_Texture: {fileID: 0}
        m_Scale: {x: 1, y: 1}
        m_Offset: {x: 0, y: 0}
    - _OcclusionMap:
        m_Texture: {fileID: 2800000, guid: 08909df601123aa4a967b0b31c46e902, type: 3}
        m_Scale: {x: 1, y: 1}
        m_Offset: {x: 0, y: 0}
    - _ParallaxMap:
        m_Texture: {fileID: 2800000, guid: 08909df601123aa4a967b0b31c46e902, type: 3}
        m_Scale: {x: 1, y: 1}
        m_Offset: {x: 0, y: 0}
    - _SpecGlossMap:
        m_Texture: {fileID: 0}
        m_Scale: {x: 1, y: 1}
        m_Offset: {x: 0, y: 0}
    m_Floats:
    - _BumpScale: 5
    - _Cutoff: 0.5
    - _DetailNormalMapScale: 5
    - _DstBlend: 0
    - _EmissionScaleUI: 0
    - _Glossiness: 0.397
    - _Metallic: 0
    - _Mode: 0
    - _OcclusionStrength: 0.716
    - _Parallax: 0.0524
    - _RimPower: 6.080357
    - _Shininess: 0.123305626
    - _SrcBlend: 1
    - _UVSec: 0
    - _ZWrite: 1
    m_Colors:
    - _Color: {r: 1, g: 1, b: 1, a: 1}
    - _EmissionColor: {r: 1, g: 1, b: 1, a: 1}
    - _EmissionColorUI: {r: 1, g: 1, b: 1, a: 1}
    - _RimColor: {r: 0.3455882, g: 0.3455882, b: 0.3455882, a: 0}
    - _SpecColor: {r: 1, g: 1, b: 1, a: 1}
