%YAML 1.1
%TAG !u! tag:unity3d.com,2011:
--- !u!21 &2100000
Material:
  serializedVersion: 6
  m_ObjectHideFlags: 0
  m_CorrespondingSourceObject: {fileID: 0}
  m_PrefabInternal: {fileID: 0}
  m_Name: MFPSkyNight
  m_Shader: {fileID: 4800000, guid: e62beaebaf9ec4da8ae22bfefe5cbb79, type: 3}
  m_ShaderKeywords: 
  m_LightmapFlags: 4
  m_EnableInstancingVariants: 0
  m_DoubleSidedGI: 0
  m_CustomRenderQueue: -1
  stringTagMap: {}
  disabledShaderPasses: []
  m_SavedProperties:
    serializedVersion: 3
    m_TexEnvs:
    - _MainTex:
        m_Texture: {fileID: 0}
        m_Scale: {x: 1, y: 1}
        m_Offset: {x: 0, y: 0}
    m_Floats:
    - _SkyExponent1: 8.5
    - _SkyExponent2: 3
    - _SkyIntensity: 0.77
    - _SunAlpha: 550
    - _SunAltitude: 38
    - _SunAzimuth: 20
    - _SunBeta: 1
    - _SunIntensity: 3.2
    m_Colors:
    - _Color: {r: 1, g: 1, b: 1, a: 1}
    - _SkyColor1: {r: 0.08088237, g: 0.08088237, b: 0.08088237, a: 0}
    - _SkyColor2: {r: 0.03243945, g: 0.049725574, b: 0.07352942, a: 0}
    - _SkyColor3: {r: 0.375, g: 0.375, b: 0.375, a: 0}
    - _SunColor: {r: 0.89705884, g: 0.9275862, b: 1, a: 1}
    - _SunVector: {r: 0.26951554, g: 0.6156615, b: 0.74048793, a: 0}
